<svg width="22" height="22" viewBox="0 0 22 22" fill="none" xmlns="http://www.w3.org/2000/svg">
<path d="M15.7691 18.9359C15.6255 18.9365 15.4839 18.9024 15.3561 18.8367L10.7763 16.4291L6.19659 18.8367C6.04787 18.9152 5.8802 18.9503 5.71264 18.9379C5.54507 18.9255 5.38433 18.8661 5.24869 18.7665C5.11305 18.667 5.00795 18.5312 4.94534 18.3746C4.88273 18.218 4.86511 18.047 4.8945 17.8809L5.79249 12.8042L2.09278 9.19727C1.97735 9.0816 1.89546 8.93655 1.85591 8.77769C1.81636 8.61883 1.82064 8.45215 1.86828 8.29555C1.92033 8.13529 2.01607 7.99289 2.14464 7.8845C2.27321 7.77612 2.42945 7.7061 2.59565 7.68238L7.71419 6.93395L9.96814 2.30811C10.0417 2.15565 10.1565 2.02708 10.2994 1.93712C10.4424 1.84715 10.6076 1.79944 10.7763 1.79944C10.945 1.79944 11.1103 1.84715 11.2532 1.93712C11.3962 2.02708 11.511 2.15565 11.5845 2.30811L13.8654 6.92493L18.9839 7.67336C19.1501 7.69708 19.3064 7.76711 19.435 7.87549C19.5635 7.98387 19.6593 8.12627 19.7113 8.28653C19.759 8.44314 19.7632 8.60981 19.7237 8.76868C19.6841 8.92754 19.6022 9.07258 19.4868 9.18825L15.7871 12.7951L16.6851 17.8718C16.7171 18.0409 16.7004 18.2156 16.6367 18.3754C16.5731 18.5352 16.4652 18.6733 16.3259 18.7736C16.1633 18.888 15.9675 18.9451 15.7691 18.9359Z" fill="#EBFF00"/>
<path d="M15.7923 18.4364L15.7797 18.4358L15.7671 18.4359C15.7044 18.4361 15.6424 18.4214 15.5863 18.3929C15.5858 18.3926 15.5853 18.3923 15.5848 18.3921L11.009 15.9865L10.7763 15.8642L10.5437 15.9865L5.96392 18.3941L5.96312 18.3945C5.89736 18.4293 5.82338 18.4447 5.74955 18.4392C5.6757 18.4338 5.60468 18.4076 5.54457 18.3635C5.48444 18.3193 5.43758 18.2589 5.40959 18.1889L4.94534 18.3746L5.40959 18.1889C5.3816 18.1189 5.3737 18.0424 5.38686 17.968L4.8945 17.8809L5.38686 17.9679L6.28485 12.8913L6.33092 12.6308L6.14152 12.4461L2.44476 8.84213C2.39448 8.79104 2.35858 8.72711 2.3411 8.6569C2.32377 8.5873 2.32524 8.51432 2.3453 8.44555C2.36889 8.37569 2.41103 8.3139 2.4669 8.26679C2.52394 8.21871 2.59304 8.18782 2.6663 8.17736L2.66799 8.17712L7.78653 7.42869L8.04794 7.39046L8.16367 7.15296L10.4176 2.52712L10.4185 2.52532C10.4513 2.45723 10.5025 2.40011 10.5658 2.36028C10.629 2.32045 10.702 2.29944 10.7763 2.29944C10.8507 2.29944 10.9236 2.32045 10.9869 2.36028C11.0502 2.40011 11.1013 2.45723 11.1342 2.52532L11.1341 2.52533L11.1362 2.52958L13.4171 7.1464L13.5334 7.3817L13.7931 7.41967L18.9116 8.1681L18.9133 8.16834C18.9866 8.1788 19.0557 8.20969 19.1127 8.25778C19.1686 8.30488 19.2107 8.36668 19.2343 8.43655C19.2544 8.50531 19.2558 8.57828 19.2385 8.64788C19.221 8.7181 19.1851 8.78205 19.1348 8.83314L15.4381 12.4371L15.2487 12.6218L15.2947 12.8822L16.1927 17.9589L16.1927 17.9589L16.1938 17.965C16.2082 18.0407 16.2007 18.1189 16.1722 18.1904C16.1441 18.261 16.0968 18.3218 16.036 18.3661C15.9644 18.4158 15.8788 18.4404 15.7923 18.4364Z" stroke="#F44E11" stroke-opacity="0.71"/>
</svg>